name,email,phoneNumber,birthday,gender,postCode,prefecture,cityOrTown,address
Kaneie,Kaneie7401@yopmail.com,0606447401,1997-05-18,0,1120003,東京都,文京区 春日,A-001,
Narisa,Narisa9704@yopmail.com,0808359704,1997-05-18,0,1120003,東京都,文京区 春日,A-001,
Shuugetsu,Shuugetsu6204@yopmail.com,0632726204,1997-05-18,0,1120003,東京都,文京区 春日,A-001,
Takechi,Takechi0072@yopmail.com,0716970072,1997-05-18,0,1120003,東京都,文京区 春日,A-001,
Tamahi,Tamahi5260@yopmail.com,0338555260,1997-05-18,0,1120003,東京都,文京区 春日,A-001,
Jin,Jin3977@yopmail.com,0799893977,1997-05-18,0,1120003,東京都,文京区 春日,A-001,
Ichizo,Ichizo9005@yopmail.com,0148719005,1997-05-18,0,1120003,東京都,文京区 春日,A-001,
Motoshi,Motoshi6288@yopmail.com,0288796288,1997-05-18,0,1120003,東京都,文京区 春日,A-001,
Nanae,Nanae5525@yopmail.com,0712775525,1997-05-18,0,1120003,東京都,文京区 春日,A-001,
Masami,Masami1771@yopmail.com,0429551771,1997-05-18,0,1120003,東京都,文京区 春日,A-001,
Youjirou,Youjirou9567@yopmail.com,0405559567,1997-05-18,0,1120003,東京都,文京区 春日,A-001,
Motoka,Motoka9052@yopmail.com,0661169052,1997-05-18,0,1120003,東京都,文京区 春日,A-001,
Yachi,Yachi6850@yopmail.com,0664286850,1997-05-18,0,1120003,東京都,文京区 春日,A-001,
Shusui,Shusui7401@yopmail.com,0177437401,1997-05-18,0,1120003,東京都,文京区 春日,A-001,
Korin,Korin9058@yopmail.com,0482129058,1997-05-18,0,1120003,東京都,文京区 春日,A-001,
Aomi,Aomi1140@yopmail.com,0661151140,1997-05-18,0,1120003,東京都,文京区 春日,A-001,
Fumio,Fumio5416@yopmail.com,0551295416,1997-05-18,0,1120003,東京都,文京区 春日,A-001,
Yuuichi,Yuuichi3916@yopmail.com,0836503916,1997-05-18,0,1120003,東京都,文京区 春日,A-001,
Toshino,Toshino4597@yopmail.com,0627894597,1997-05-18,0,1120003,東京都,文京区 春日,A-001,
Taiyou,Taiyou7707@yopmail.com,0210127707,1997-05-18,0,1120003,東京都,文京区 春日,A-001,
Otoe,Otoe1575@yopmail.com,0763581575,1997-05-18,0,1120003,東京都,文京区 春日,A-001,
Yuuga,Yuuga7951@yopmail.com,0153257951,1997-05-18,0,1120003,東京都,文京区 春日,A-001,
Naoto,Naoto8499@yopmail.com,0810228499,1997-05-18,0,1120003,東京都,文京区 春日,A-001,
Amaya,Amaya9488@yopmail.com,0454599488,1997-05-18,0,1120003,東京都,文京区 春日,A-001,
Akeno,Akeno4540@yopmail.com,0644834540,1997-05-18,0,1120003,東京都,文京区 春日,A-001,
Shunichirou,Shunichirou0018@yopmail.com,0274840018,1997-05-18,0,1120003,東京都,文京区 春日,A-001,
Okyoito,Okyoito8390@yopmail.com,0634108390,1997-05-18,0,1120003,東京都,文京区 春日,A-001,
Ashihei,Ashihei6741@yopmail.com,0655826741,1997-05-18,0,1120003,東京都,文京区 春日,A-001,
Tadasu,Tadasu7815@yopmail.com,0835627815,1997-05-18,0,1120003,東京都,文京区 春日,A-001,
Naoha,Naoha3552@yopmail.com,0647363552,1997-05-18,0,1120003,東京都,文京区 春日,A-001,
Yatsuhiro,Yatsuhiro1840@yopmail.com,0682281840,1997-05-18,0,1120003,東京都,文京区 春日,A-001,
Moeka,Moeka7871@yopmail.com,0616857871,1997-05-18,0,1120003,東京都,文京区 春日,A-001,
Yuuji,Yuuji9264@yopmail.com,0894769264,1997-05-18,0,1120003,東京都,文京区 春日,A-001,
Fuua,Fuua5807@yopmail.com,0931785807,1997-05-18,0,1120003,東京都,文京区 春日,A-001,
Fusako,Fusako6361@yopmail.com,0282776361,1997-05-18,0,1120003,東京都,文京区 春日,A-001,
Hitona,Hitona7994@yopmail.com,0540077994,1997-05-18,0,1120003,東京都,文京区 春日,A-001,
Shouno,Shouno9272@yopmail.com,0404409272,1997-05-18,0,1120003,東京都,文京区 春日,A-001,
Nirei,Nirei5051@yopmail.com,0556985051,1997-05-18,0,1120003,東京都,文京区 春日,A-001,
Sahori,Sahori9678@yopmail.com,0772699678,1997-05-18,0,1120003,東京都,文京区 春日,A-001,
Touma,Touma1321@yopmail.com,0928201321,1997-05-18,0,1120003,東京都,文京区 春日,A-001,
Tsutae,Tsutae8959@yopmail.com,0223848959,1997-05-18,0,1120003,東京都,文京区 春日,A-001,
Ritsu,Ritsu3688@yopmail.com,0503083688,1997-05-18,0,1120003,東京都,文京区 春日,A-001,
Chino,Chino7722@yopmail.com,0263057722,1997-05-18,0,1120003,東京都,文京区 春日,A-001,
Hidehira,Hidehira4325@yopmail.com,0759754325,1997-05-18,0,1120003,東京都,文京区 春日,A-001,
Mirai,Mirai2362@yopmail.com,0103462362,1997-05-18,0,1120003,東京都,文京区 春日,A-001,
Hare,Hare6017@yopmail.com,0182426017,1997-05-18,0,1120003,東京都,文京区 春日,A-001,
Hachemon,Hachemon3041@yopmail.com,0889383041,1997-05-18,0,1120003,東京都,文京区 春日,A-001,
Munenori,Munenori1719@yopmail.com,0701321719,1997-05-18,0,1120003,東京都,文京区 春日,A-001,
Katsuki,Katsuki7359@yopmail.com,0561817359,1997-05-18,0,1120003,東京都,文京区 春日,A-001,
Hisana,Hisana4182@yopmail.com,0360914182,1997-05-18,0,1120003,東京都,文京区 春日,A-001,
Seijuurou,Seijuurou4931@yopmail.com,0559714931,1997-05-18,0,1120003,東京都,文京区 春日,A-001,
Ryuubi,Ryuubi9154@yopmail.com,0384959154,1997-05-18,0,1120003,東京都,文京区 春日,A-001,
Mane,Mane6942@yopmail.com,0512166942,1997-05-18,0,1120003,東京都,文京区 春日,A-001,
Kyuso,Kyuso1839@yopmail.com,0849221839,1997-05-18,0,1120003,東京都,文京区 春日,A-001,
Tomomizu,Tomomizu2611@yopmail.com,0137782611,1997-05-18,0,1120003,東京都,文京区 春日,A-001,
Kiyu,Kiyu5508@yopmail.com,0201275508,1997-05-18,0,1120003,東京都,文京区 春日,A-001,
Yukiyo,Yukiyo6967@yopmail.com,0661226967,1997-05-18,0,1120003,東京都,文京区 春日,A-001,
Asa,Asa1801@yopmail.com,0365891801,1997-05-18,0,1120003,東京都,文京区 春日,A-001,
Akiko,Akiko8683@yopmail.com,0957558683,1997-05-18,0,1120003,東京都,文京区 春日,A-001,
Ume,Ume4414@yopmail.com,0250924414,1997-05-18,0,1120003,東京都,文京区 春日,A-001,
Shigeaki,Shigeaki3374@yopmail.com,0701963374,1997-05-18,0,1120003,東京都,文京区 春日,A-001,
Gunta,Gunta8998@yopmail.com,0751948998,1997-05-18,0,1120003,東京都,文京区 春日,A-001,
Kannon,Kannon6141@yopmail.com,0940886141,1997-05-18,0,1120003,東京都,文京区 春日,A-001,
Mikikazu,Mikikazu1811@yopmail.com,0441841811,1997-05-18,0,1120003,東京都,文京区 春日,A-001,
Soyoka,Soyoka9963@yopmail.com,0959459963,1997-05-18,0,1120003,東京都,文京区 春日,A-001,
Nijito,Nijito1362@yopmail.com,0215251362,1997-05-18,0,1120003,東京都,文京区 春日,A-001,
Junzo,Junzo3367@yopmail.com,0747103367,1997-05-18,0,1120003,東京都,文京区 春日,A-001,
Momono,Momono7161@yopmail.com,0354727161,1997-05-18,0,1120003,東京都,文京区 春日,A-001,
Chino,Chino2295@yopmail.com,0487862295,1997-05-18,0,1120003,東京都,文京区 春日,A-001,
Asa,Asa3144@yopmail.com,0103823144,1997-05-18,0,1120003,東京都,文京区 春日,A-001,
Aguri,Aguri8699@yopmail.com,0143268699,1997-05-18,0,1120003,東京都,文京区 春日,A-001,
Sumiyo,Sumiyo7359@yopmail.com,0798207359,1997-05-18,0,1120003,東京都,文京区 春日,A-001,
Shii,Shii3318@yopmail.com,0834743318,1997-05-18,0,1120003,東京都,文京区 春日,A-001,
Yukari,Yukari0719@yopmail.com,0885080719,1997-05-18,0,1120003,東京都,文京区 春日,A-001,
Munemitsu,Munemitsu7022@yopmail.com,0223897022,1997-05-18,0,1120003,東京都,文京区 春日,A-001,
Tomotarou,Tomotarou7263@yopmail.com,0965467263,1997-05-18,0,1120003,東京都,文京区 春日,A-001,
Natsumi,Natsumi1187@yopmail.com,0995511187,1997-05-18,0,1120003,東京都,文京区 春日,A-001,
Yoriyuki,Yoriyuki0001@yopmail.com,0968570001,1997-05-18,0,1120003,東京都,文京区 春日,A-001,
Shojiro,Shojiro6799@yopmail.com,0735826799,1997-05-18,0,1120003,東京都,文京区 春日,A-001,
Suketsune,Suketsune2020@yopmail.com,0637562020,1997-05-18,0,1120003,東京都,文京区 春日,A-001,
Munemitsu,Munemitsu3814@yopmail.com,0836253814,1997-05-18,0,1120003,東京都,文京区 春日,A-001,
Kasumi,Kasumi7625@yopmail.com,0474997625,1997-05-18,0,1120003,東京都,文京区 春日,A-001,
Miyumi,Miyumi4486@yopmail.com,0342404486,1997-05-18,0,1120003,東京都,文京区 春日,A-001,
Kinnojo,Kinnojo4187@yopmail.com,0240714187,1997-05-18,0,1120003,東京都,文京区 春日,A-001,
Tetsuhiko,Tetsuhiko0667@yopmail.com,0949600667,1997-05-18,0,1120003,東京都,文京区 春日,A-001,
Toshirou,Toshirou5847@yopmail.com,0509325847,1997-05-18,0,1120003,東京都,文京区 春日,A-001,
Yodo,Yodo8713@yopmail.com,0804828713,1997-05-18,0,1120003,東京都,文京区 春日,A-001,
Masamichi,Masamichi1079@yopmail.com,0573951079,1997-05-18,0,1120003,東京都,文京区 春日,A-001,
Takako,Takako7497@yopmail.com,0510847497,1997-05-18,0,1120003,東京都,文京区 春日,A-001,
Yuhana,Yuhana1197@yopmail.com,0309741197,1997-05-18,0,1120003,東京都,文京区 春日,A-001,
Risato,Risato8827@yopmail.com,0413448827,1997-05-18,0,1120003,東京都,文京区 春日,A-001,
Riyu,Riyu8815@yopmail.com,0267598815,1997-05-18,0,1120003,東京都,文京区 春日,A-001,
Tadahisa,Tadahisa3814@yopmail.com,0866533814,1997-05-18,0,1120003,東京都,文京区 春日,A-001,
Okyoito,Okyoito7063@yopmail.com,0323737063,1997-05-18,0,1120003,東京都,文京区 春日,A-001,
Seishi,Seishi6581@yopmail.com,0821426581,1997-05-18,0,1120003,東京都,文京区 春日,A-001,
Taro,Taro4103@yopmail.com,0569964103,1997-05-18,0,1120003,東京都,文京区 春日,A-001,
Kotoko,Kotoko6678@yopmail.com,0365886678,1997-05-18,0,1120003,東京都,文京区 春日,A-001,
Norihide,Norihide3933@yopmail.com,0640113933,1997-05-18,0,1120003,東京都,文京区 春日,A-001,
Hidemi,Hidemi3241@yopmail.com,0411183241,1997-05-18,0,1120003,東京都,文京区 春日,A-001,
Hideaki,Hideaki9242@yopmail.com,0407059242,1997-05-18,0,1120003,東京都,文京区 春日,A-001,